<svg width="16" height="16" viewBox="0 0 16 16" fill="none" xmlns="http://www.w3.org/2000/svg">
<path d="M11.0651 5.80005C11.2767 6.01164 11.2767 6.35463 11.0651 6.56611L7.43127 10.2C7.21968 10.4115 6.8768 10.4115 6.66521 10.2L4.93537 8.47009C4.72378 8.25861 4.72378 7.91562 4.93537 7.70414C5.14685 7.49255 5.48984 7.49255 5.70132 7.70414L7.04818 9.05101L10.299 5.80005C10.5106 5.58857 10.8536 5.58857 11.0651 5.80005ZM14.9336 8.00005C14.9336 11.8324 11.8321 14.9334 8.00023 14.9334C4.16783 14.9334 1.06689 11.8319 1.06689 8.00005C1.06689 4.16765 4.16836 1.06671 8.00023 1.06671C11.8326 1.06671 14.9336 4.16818 14.9336 8.00005ZM13.8502 8.00005C13.8502 4.76644 11.2334 2.15005 8.00023 2.15005C4.76663 2.15005 2.15023 4.76687 2.15023 8.00005C2.15023 11.2336 4.76705 13.85 8.00023 13.85C11.2338 13.85 13.8502 11.2332 13.8502 8.00005Z" fill="#444444" stroke="#444444" stroke-width="0.5"/>
</svg>
