<svg width="23" height="20" viewBox="0 0 23 20" fill="none" xmlns="http://www.w3.org/2000/svg">
<path fill-rule="evenodd" clip-rule="evenodd" d="M11.4288 1.90475C11.9548 1.90475 12.3812 1.47836 12.3812 0.952375C12.3812 0.426393 11.9548 0 11.4288 0C10.9029 0 10.4765 0.426393 10.4765 0.952375C10.4765 1.47836 10.9029 1.90475 11.4288 1.90475ZM21.9048 6.66639C22.4308 6.66639 22.8572 6.24 22.8572 5.71402C22.8572 5.18803 22.4308 4.76164 21.9048 4.76164C21.3788 4.76164 20.9524 5.18803 20.9524 5.71402C20.9524 6.24 21.3788 6.66639 21.9048 6.66639ZM1.90475 5.71402C1.90475 6.24 1.47836 6.66639 0.952375 6.66639C0.426393 6.66639 0 6.24 0 5.71402C0 5.18803 0.426393 4.76164 0.952375 4.76164C1.47836 4.76164 1.90475 5.18803 1.90475 5.71402ZM2.83397 16.1903H20.0237L21.8821 7.82544C21.9233 7.63987 21.9081 7.44621 21.8383 7.26938C21.7685 7.09255 21.6475 6.94064 21.4906 6.8332C21.3338 6.72576 21.1484 6.66771 20.9583 6.66652C20.7682 6.66533 20.5821 6.72106 20.424 6.82652L15.6071 10.0375L12.2803 3.38345C12.2012 3.22528 12.0797 3.09226 11.9292 2.99929C11.7788 2.90633 11.6054 2.85709 11.4286 2.85709C11.2517 2.85709 11.0784 2.90633 10.9279 2.99929C10.7775 3.09226 10.6559 3.22528 10.5768 3.38345L7.25002 10.0375L2.43302 6.82652C2.27487 6.7211 2.08878 6.66541 1.89872 6.66662C1.70865 6.66783 1.52329 6.72588 1.36649 6.83331C1.20969 6.94075 1.08862 7.09264 1.01886 7.26945C0.949106 7.44626 0.933849 7.63989 0.975056 7.82544L2.83397 16.1903ZM2.85696 19.0477V17.1429H19.9997V19.0477C19.9997 19.3002 19.8994 19.5425 19.7208 19.7211C19.5422 19.8997 19.2999 20 19.0473 20H3.80933C3.55675 20 3.31451 19.8997 3.1359 19.7211C2.9573 19.5425 2.85696 19.3002 2.85696 19.0477Z" fill="#FFBC11"/>
</svg>
