<svg width="7" height="10" viewBox="0 0 7 10" fill="none" xmlns="http://www.w3.org/2000/svg">
<path d="M1.41789 0.670131L1.13868 0.947419C1.05148 1.03469 1.00344 1.15079 1.00344 1.27488C1.00344 1.3989 1.05148 1.51514 1.13868 1.60241L4.30193 4.76552L1.13517 7.93228C1.04797 8.01941 1 8.13565 1 8.25967C1 8.38369 1.04797 8.5 1.13517 8.5872L1.41266 8.86456C1.59312 9.04515 1.88706 9.04515 2.06752 8.86456L5.85148 5.09415C5.93861 5.00702 6 4.89092 6 4.76579V4.76435C6 4.64026 5.93854 4.52416 5.85148 4.43703L2.07777 0.670131C1.99064 0.582863 1.87103 0.534962 1.74701 0.534824C1.62292 0.534824 1.50496 0.582863 1.41789 0.670131Z" fill="#444444" stroke="#444444" stroke-width="0.5" stroke-linecap="round"/>
</svg>
