<svg width="18" height="18" viewBox="0 0 18 18" fill="none" xmlns="http://www.w3.org/2000/svg">
<path d="M9 17C6.86312 17 4.85416 16.1678 3.34313 14.6569C1.83216 13.1458 1 11.1369 1 9C1 6.86312 1.83216 4.85416 3.34313 3.34313C4.85416 1.83216 6.86312 1 9 1C11.1369 1 13.1458 1.83216 14.6569 3.34313C16.1678 4.85416 17 6.86312 17 9C17 11.1369 16.1678 13.1458 14.6569 14.6569C13.1458 16.1678 11.1369 17 9 17ZM9 2.25C5.27803 2.25 2.25 5.27803 2.25 9C2.25 12.722 5.27803 15.75 9 15.75C12.722 15.75 15.75 12.722 15.75 9C15.75 5.27803 12.722 2.25 9 2.25ZM11.9293 10.3809C11.6381 10.1955 11.2517 10.2814 11.0665 10.5726C11.0588 10.5847 10.2809 11.7832 8.96875 11.7832C7.65656 11.7832 6.87875 10.5847 6.87103 10.5726C6.68572 10.2814 6.29944 10.1956 6.00822 10.3809C5.717 10.5662 5.63116 10.9525 5.81647 11.2437C5.86297 11.3168 6.97809 13.0332 8.96875 13.0332C10.9594 13.0332 12.0745 11.3168 12.121 11.2437C12.3063 10.9525 12.2205 10.5662 11.9293 10.3809ZM6.25 6.15625C6.68147 6.15625 7.03125 6.50603 7.03125 6.9375C7.03125 7.36897 6.68147 7.71875 6.25 7.71875C5.81853 7.71875 5.46875 7.36897 5.46875 6.9375C5.46875 6.50603 5.81853 6.15625 6.25 6.15625ZM10.9375 6.9375C10.9375 7.36897 11.2873 7.71875 11.7188 7.71875C12.1502 7.71875 12.5 7.36897 12.5 6.9375C12.5 6.50603 12.1502 6.15625 11.7188 6.15625C11.2873 6.15625 10.9375 6.50603 10.9375 6.9375Z" fill="#A0B2C0" stroke="#A0B2C0" stroke-width="0.6"/>
</svg>
