<svg width="12" height="14" viewBox="0 0 12 14" fill="none" xmlns="http://www.w3.org/2000/svg">
<path fill-rule="evenodd" clip-rule="evenodd" d="M3.41001 1.56187V1.56187V1.56188C3.41024 1.69184 3.41047 1.82314 3.41047 1.95648H3.23965C3.00448 1.95666 2.76931 1.95665 2.53414 1.95664C1.99739 1.95661 1.46064 1.95659 0.923883 1.95884C0.537035 1.96062 0.26367 2.2325 0.266625 2.6028C0.269477 2.94843 0.528521 3.20326 0.889214 3.22016C0.887953 5.54735 0.888592 9.21641 0.891096 11.4815C0.89087 11.6142 0.902242 11.7466 0.925083 11.8773C1.02538 12.4539 1.32654 12.9764 1.77524 13.3523C2.22393 13.7282 2.79118 13.9331 3.3765 13.9309C5.07738 13.9348 6.77834 13.9338 8.47941 13.9279C8.6856 13.9265 8.89087 13.9006 9.09087 13.8505C10.2139 13.5709 10.9707 12.5969 10.9707 11.4404V8.03267L10.9743 8.03385C10.9743 7.70081 10.9749 7.25556 10.9756 6.76252V6.76227V6.76205V6.76119V6.76061C10.9772 5.55057 10.9792 4.0533 10.9737 3.2201C11.231 3.20866 11.4211 3.09325 11.5343 2.85636C11.7382 2.42844 11.4249 1.95795 10.935 1.9556C10.4203 1.95362 9.90572 1.95428 9.3911 1.95494C9.13379 1.95527 8.87649 1.9556 8.61918 1.9556C8.58429 1.9554 8.54954 1.95347 8.51099 1.95133L8.51098 1.95133L8.51097 1.95133C8.49205 1.95028 8.47223 1.94918 8.45102 1.94821V1.77384C8.45075 1.66618 8.45096 1.55854 8.45116 1.45092V1.45031V1.45028V1.45026C8.45163 1.20893 8.45209 0.967707 8.44718 0.726483C8.4395 0.343477 8.18505 0.0709985 7.81535 0.0695209C6.55658 0.0657775 5.29792 0.0657775 4.03936 0.0695209C3.90513 0.0682177 3.77415 0.110826 3.66638 0.190853C3.55861 0.270882 3.47996 0.383943 3.44239 0.512816C3.41868 0.607966 3.40794 0.705885 3.41047 0.803912C3.4091 1.05501 3.40955 1.30586 3.41001 1.56187ZM9.71307 3.22042C7.59146 3.21952 5.46971 3.21973 3.34782 3.22105H2.15517C2.15359 4.87932 2.15367 7.8022 2.15537 9.36108V11.4115C2.15537 12.1394 2.68231 12.6654 3.41167 12.6654H8.48532C9.17361 12.6654 9.70734 12.129 9.70734 11.439C9.70734 10.0378 9.70902 8.13798 9.71062 6.34282C9.71162 5.20974 9.71259 4.11837 9.71307 3.22042ZM7.17345 1.94614H4.68361V1.34148H7.17345V1.94614ZM4.04274 7.94031V5.77172C4.04274 5.39108 4.30606 5.11358 4.66512 5.1121C5.02921 5.11033 5.30405 5.38014 5.30493 5.75783C5.30849 7.21834 5.30849 8.67874 5.30493 10.1391C5.30493 10.5108 5.01916 10.7818 4.65625 10.7774C4.30664 10.7729 4.04214 10.4928 4.04155 10.1234C4.04175 9.39579 4.04214 8.6681 4.04274 7.94031ZM7.818 10.1267V7.94364C7.81878 7.21112 7.8181 6.4784 7.81593 5.74549C7.81533 5.47951 7.69477 5.2824 7.45361 5.1701C7.02096 4.96854 6.5558 5.27649 6.55373 5.76884C6.55196 6.36208 6.55255 6.95544 6.55314 7.54877C6.55344 7.84542 6.55373 8.14206 6.55373 8.43866C6.55373 8.60414 6.55343 8.76964 6.55312 8.93516C6.55239 9.33511 6.55166 9.73512 6.55521 10.135C6.55875 10.5136 6.84128 10.7822 7.21571 10.7769C7.55468 10.7719 7.818 10.487 7.818 10.1267Z" fill="#444444"/>
<path d="M3.41001 1.56187H3.46001V1.56178L3.41001 1.56187ZM3.41001 1.56188H3.36001L3.36001 1.56197L3.41001 1.56188ZM3.41047 1.95648V2.00648H3.46047V1.95648H3.41047ZM3.23965 1.95648V1.90648L3.23961 1.90648L3.23965 1.95648ZM2.53414 1.95664L2.53413 2.00664L2.53414 1.95664ZM0.923883 1.95884L0.923673 1.90884L0.923654 1.90884L0.923883 1.95884ZM0.266625 2.6028L0.216627 2.6032L0.216627 2.60321L0.266625 2.6028ZM0.889214 3.22016L0.939214 3.22019L0.93924 3.17245L0.891555 3.17021L0.889214 3.22016ZM0.891096 11.4815L0.941096 11.4816L0.941096 11.4814L0.891096 11.4815ZM0.925083 11.8773L0.974343 11.8687L0.974336 11.8687L0.925083 11.8773ZM1.77524 13.3523L1.80735 13.314H1.80735L1.77524 13.3523ZM3.3765 13.9309L3.37661 13.8809L3.3763 13.8809L3.3765 13.9309ZM8.47941 13.9279L8.47959 13.9779L8.47975 13.9779L8.47941 13.9279ZM9.09087 13.8505L9.07879 13.8019L9.07872 13.802L9.09087 13.8505ZM10.9707 8.03267L10.9864 7.9852L10.9207 7.9635V8.03267H10.9707ZM10.9743 8.03385L10.9586 8.08133L11.0243 8.10303V8.03385H10.9743ZM10.9756 6.76252L11.0256 6.76259V6.76252H10.9756ZM10.9756 6.76061L10.9256 6.76054V6.76061H10.9756ZM10.9737 3.2201L10.9715 3.17015L10.9234 3.17229L10.9237 3.22043L10.9737 3.2201ZM11.5343 2.85636L11.5794 2.87792L11.5794 2.87788L11.5343 2.85636ZM10.935 1.9556L10.9352 1.9056L10.9352 1.9056L10.935 1.9556ZM9.3911 1.95494L9.39104 1.90494L9.3911 1.95494ZM8.61918 1.9556L8.6189 2.0056H8.61918V1.9556ZM8.51099 1.95133L8.51376 1.90141L8.51349 1.90139L8.51099 1.95133ZM8.51098 1.95133L8.50786 2.00124L8.50848 2.00127L8.51098 1.95133ZM8.51097 1.95133L8.51409 1.90143L8.51374 1.90141L8.51097 1.95133ZM8.45102 1.94821H8.40102V1.99597L8.44874 1.99816L8.45102 1.94821ZM8.45102 1.77384H8.50102V1.77372L8.45102 1.77384ZM8.45116 1.45092L8.50116 1.45102V1.45092H8.45116ZM8.45116 1.45026L8.40116 1.45016V1.45026H8.45116ZM8.44718 0.726483L8.39719 0.727486V0.7275L8.44718 0.726483ZM7.81535 0.0695209L7.81555 0.0195212L7.81549 0.0195211L7.81535 0.0695209ZM4.03936 0.0695209L4.03887 0.119523L4.03951 0.119521L4.03936 0.0695209ZM3.66638 0.190853L3.69619 0.230996L3.69619 0.230995L3.66638 0.190853ZM3.44239 0.512816L3.39435 0.498811L3.39387 0.500728L3.44239 0.512816ZM3.41047 0.803912L3.4605 0.804186L3.46046 0.80262L3.41047 0.803912ZM3.34782 3.22105V3.27105H3.34785L3.34782 3.22105ZM9.71307 3.22042L9.76307 3.22044L9.7631 3.17044L9.7131 3.17042L9.71307 3.22042ZM2.15517 3.22105V3.17105H2.10522L2.10517 3.221L2.15517 3.22105ZM2.15537 9.36108H2.20537V9.36102L2.15537 9.36108ZM9.71062 6.34282L9.76062 6.34286L9.71062 6.34282ZM4.68361 1.94614H4.63361V1.99614H4.68361V1.94614ZM7.17345 1.94614V1.99614H7.22345V1.94614H7.17345ZM4.68361 1.34148V1.29148H4.63361V1.34148H4.68361ZM7.17345 1.34148H7.22345V1.29148H7.17345V1.34148ZM4.04274 7.94031L4.09274 7.94035V7.94031H4.04274ZM4.66512 5.1121L4.66532 5.1621L4.66536 5.1621L4.66512 5.1121ZM5.30493 5.75783L5.25493 5.75795V5.75795L5.30493 5.75783ZM5.30493 10.1391L5.25493 10.139V10.1391H5.30493ZM4.65625 10.7774L4.65562 10.8274H4.65564L4.65625 10.7774ZM4.04155 10.1234L3.99155 10.1234L3.99155 10.1235L4.04155 10.1234ZM7.818 7.94364L7.768 7.94359V7.94364H7.818ZM7.81593 5.74549L7.76593 5.7456L7.76593 5.74564L7.81593 5.74549ZM7.45361 5.1701L7.43249 5.21542L7.4325 5.21543L7.45361 5.1701ZM6.55373 5.76884L6.50373 5.76863V5.76869L6.55373 5.76884ZM6.55314 7.54877L6.50314 7.54882L6.55314 7.54877ZM6.55312 8.93516L6.50312 8.93507L6.55312 8.93516ZM6.55521 10.135L6.50521 10.1354L6.50521 10.1355L6.55521 10.135ZM7.21571 10.7769L7.21642 10.8268H7.21644L7.21571 10.7769ZM3.46001 1.56187V1.56187H3.36001V1.56187H3.46001ZM3.46001 1.56188V1.56187H3.36001V1.56188H3.46001ZM3.46047 1.95648C3.46047 1.82309 3.46024 1.69175 3.46001 1.56179L3.36001 1.56197C3.36024 1.69194 3.36047 1.82319 3.36047 1.95648H3.46047ZM3.23965 2.00648H3.41047V1.90648H3.23965V2.00648ZM2.53413 2.00664C2.7693 2.00665 3.00449 2.00666 3.23969 2.00648L3.23961 1.90648C3.00447 1.90666 2.76931 1.90665 2.53414 1.90664L2.53413 2.00664ZM0.924094 2.00884C1.46072 2.00659 1.99737 2.00661 2.53413 2.00664L2.53414 1.90664C1.99741 1.90661 1.46055 1.90659 0.923673 1.90884L0.924094 2.00884ZM0.316624 2.6024C0.3139 2.26112 0.563586 2.0105 0.924112 2.00884L0.923654 1.90884C0.510485 1.91074 0.21344 2.20388 0.216627 2.6032L0.316624 2.6024ZM0.891555 3.17021C0.555085 3.15445 0.319238 2.91924 0.316624 2.60239L0.216627 2.60321C0.219716 2.97762 0.501956 3.25207 0.886874 3.2701L0.891555 3.17021ZM0.941096 11.4814C0.938592 9.21639 0.937953 5.54736 0.939214 3.22019L0.839214 3.22013C0.837953 5.54735 0.838592 9.21644 0.841096 11.4815L0.941096 11.4814ZM0.974336 11.8687C0.951997 11.7408 0.940875 11.6113 0.941096 11.4816L0.841096 11.4814C0.840865 11.617 0.852487 11.7523 0.875829 11.8859L0.974336 11.8687ZM1.80735 13.314C1.3677 12.9457 1.07261 12.4337 0.974343 11.8687L0.875822 11.8858C0.978141 12.4741 1.28538 13.0071 1.74313 13.3906L1.80735 13.314ZM3.3763 13.8809C2.8028 13.8831 2.24698 13.6823 1.80735 13.314L1.74313 13.3906C2.20087 13.7741 2.77957 13.9832 3.37669 13.9809L3.3763 13.8809ZM8.47924 13.8779C6.77826 13.8838 5.0774 13.8848 3.37661 13.8809L3.37638 13.9809C5.07736 13.9848 6.77842 13.9838 8.47959 13.9779L8.47924 13.8779ZM9.07872 13.802C8.88259 13.8511 8.68129 13.8765 8.47908 13.8779L8.47975 13.9779C8.6899 13.9765 8.89914 13.95 9.10302 13.899L9.07872 13.802ZM10.9207 11.4404C10.9207 12.574 10.1794 13.528 9.07879 13.8019L9.10295 13.899C10.2484 13.6139 11.0207 12.6197 11.0207 11.4404H10.9207ZM10.9207 8.03267V11.4404H11.0207V8.03267H10.9207ZM10.99 7.98637L10.9864 7.9852L10.9551 8.08015L10.9586 8.08133L10.99 7.98637ZM10.9256 6.76245C10.9249 7.25548 10.9243 7.70076 10.9243 8.03385H11.0243C11.0243 7.70085 11.0249 7.25564 11.0256 6.76259L10.9256 6.76245ZM10.9256 6.76227V6.76252H11.0256V6.76227H10.9256ZM10.9256 6.76205V6.76227H11.0256V6.76205H10.9256ZM10.9256 6.76119V6.76205H11.0256V6.76119H10.9256ZM10.9256 6.76061V6.76119H11.0256V6.76061H10.9256ZM10.9237 3.22043C10.9292 4.05338 10.9272 5.5504 10.9256 6.76054L11.0256 6.76068C11.0272 5.55075 11.0292 4.05322 11.0237 3.21978L10.9237 3.22043ZM11.4891 2.83481C11.436 2.94602 11.366 3.02643 11.2811 3.08063C11.196 3.13492 11.0931 3.16474 10.9715 3.17015L10.9759 3.27005C11.1116 3.26402 11.2323 3.23041 11.3349 3.16492C11.4377 3.09933 11.5193 3.0036 11.5794 2.87792L11.4891 2.83481ZM10.9347 2.0056C11.3914 2.00779 11.6759 2.44298 11.4891 2.83485L11.5794 2.87788C11.8006 2.41391 11.4585 1.90811 10.9352 1.9056L10.9347 2.0056ZM9.39117 2.00494C9.90581 2.00428 10.4203 2.00362 10.9348 2.0056L10.9352 1.9056C10.4204 1.90362 9.90564 1.90428 9.39104 1.90494L9.39117 2.00494ZM8.61918 2.0056C8.87652 2.0056 9.13386 2.00527 9.39117 2.00494L9.39104 1.90494C9.13373 1.90527 8.87645 1.9056 8.61918 1.9056V2.0056ZM8.50822 2.00125C8.54653 2.00338 8.58255 2.00539 8.6189 2.0056L8.61947 1.9056C8.58604 1.90541 8.55255 1.90356 8.51376 1.90141L8.50822 2.00125ZM8.50848 2.00127L8.5085 2.00127L8.51349 1.90139L8.51348 1.90139L8.50848 2.00127ZM8.50785 2.00123L8.50786 2.00123L8.5141 1.90143L8.51409 1.90143L8.50785 2.00123ZM8.44874 1.99816C8.46966 1.99911 8.48926 2.0002 8.5082 2.00125L8.51374 1.90141C8.49485 1.90036 8.47479 1.89925 8.45331 1.89826L8.44874 1.99816ZM8.40102 1.77384V1.94821H8.50102V1.77384H8.40102ZM8.40116 1.45083C8.40096 1.55843 8.40075 1.66617 8.40102 1.77397L8.50102 1.77372C8.50075 1.66618 8.50096 1.55865 8.50116 1.45102L8.40116 1.45083ZM8.40116 1.45031V1.45092H8.50116V1.45031H8.40116ZM8.40116 1.45028V1.45031H8.50116V1.45028H8.40116ZM8.40116 1.45026V1.45028H8.50116V1.45026H8.40116ZM8.39719 0.7275C8.40209 0.968075 8.40163 1.20874 8.40116 1.45016L8.50116 1.45035C8.50163 1.20912 8.50209 0.967339 8.49717 0.725466L8.39719 0.7275ZM7.81515 0.11952C7.98719 0.120208 8.12997 0.18366 8.23084 0.289434C8.33194 0.395464 8.39357 0.546874 8.39719 0.727486L8.49717 0.725481C8.49311 0.523087 8.42367 0.346754 8.30321 0.220424C8.1825 0.0938376 8.01321 0.0203113 7.81555 0.0195213L7.81515 0.11952ZM4.03951 0.119521C5.29797 0.115778 6.55653 0.115778 7.8152 0.119521L7.81549 0.0195211C6.55663 0.0157774 5.29787 0.0157774 4.03921 0.0195211L4.03951 0.119521ZM3.69619 0.230995C3.79521 0.157469 3.91554 0.118321 4.03887 0.119519L4.03984 0.0195232C3.89471 0.0181143 3.75309 0.0641825 3.63657 0.150711L3.69619 0.230995ZM3.49039 0.526809C3.52491 0.408402 3.59717 0.304523 3.69619 0.230996L3.63658 0.15071C3.52005 0.23724 3.43501 0.359485 3.39439 0.498822L3.49039 0.526809ZM3.46046 0.80262C3.45804 0.709102 3.46829 0.615684 3.49091 0.524903L3.39387 0.500728C3.36908 0.600248 3.35784 0.702668 3.36049 0.805205L3.46046 0.80262ZM3.46001 1.56178C3.45955 1.30574 3.4591 1.05507 3.46047 0.804186L3.36047 0.803639C3.3591 1.05495 3.35955 1.30598 3.36001 1.56196L3.46001 1.56178ZM3.34785 3.27105C5.46972 3.26973 7.59146 3.26952 9.71305 3.27042L9.7131 3.17042C7.59147 3.16952 5.4697 3.16973 3.34779 3.17105L3.34785 3.27105ZM2.15517 3.27105H3.34782V3.17105H2.15517V3.27105ZM2.20537 9.36102C2.20367 7.80218 2.20359 4.87934 2.20517 3.2211L2.10517 3.221C2.10359 4.8793 2.10367 7.80222 2.10537 9.36113L2.20537 9.36102ZM2.20537 11.4115V9.36108H2.10537V11.4115H2.20537ZM3.41167 12.6154C2.70983 12.6154 2.20537 12.1117 2.20537 11.4115H2.10537C2.10537 12.1671 2.65478 12.7154 3.41167 12.7154V12.6154ZM8.48532 12.6154H3.41167V12.7154H8.48532V12.6154ZM9.65734 11.439C9.65734 12.1015 9.14581 12.6154 8.48532 12.6154V12.7154C9.20142 12.7154 9.75734 12.1564 9.75734 11.439H9.65734ZM9.66062 6.34277C9.65903 8.13793 9.65734 10.0378 9.65734 11.439H9.75734C9.75734 10.0379 9.75902 8.13804 9.76062 6.34286L9.66062 6.34277ZM9.66307 3.22039C9.66259 4.11833 9.66162 5.20969 9.66062 6.34277L9.76062 6.34286C9.76162 5.20979 9.76259 4.1184 9.76307 3.22044L9.66307 3.22039ZM4.68361 1.99614H7.17345V1.89614H4.68361V1.99614ZM4.63361 1.34148V1.94614H4.73361V1.34148H4.63361ZM7.17345 1.29148H4.68361V1.39148H7.17345V1.29148ZM7.22345 1.94614V1.34148H7.12345V1.94614H7.22345ZM3.99274 5.77172V7.94031H4.09274V5.77172H3.99274ZM4.66491 5.0621C4.27589 5.0637 3.99274 5.36603 3.99274 5.77172H4.09274C4.09274 5.41612 4.33622 5.16345 4.66532 5.1621L4.66491 5.0621ZM5.35493 5.75771C5.35399 5.35275 5.05701 5.06019 4.66487 5.0621L4.66536 5.1621C5.0014 5.16047 5.25412 5.40754 5.25493 5.75795L5.35493 5.75771ZM5.35493 10.1392C5.35849 8.67878 5.35849 7.2183 5.35493 5.75771L5.25493 5.75795C5.25849 7.21838 5.25849 8.6787 5.25493 10.139L5.35493 10.1392ZM4.65564 10.8274C5.04568 10.8322 5.35493 10.5394 5.35493 10.1391H5.25493C5.25493 10.4822 4.99263 10.7315 4.65687 10.7274L4.65564 10.8274ZM3.99155 10.1235C3.99218 10.5179 4.27639 10.8225 4.65562 10.8274L4.65689 10.7274C4.33689 10.7233 4.0921 10.4677 4.09155 10.1234L3.99155 10.1235ZM3.99274 7.94027C3.99214 8.66807 3.99175 9.39577 3.99155 10.1234L4.09155 10.1234C4.09175 9.39581 4.09214 8.66813 4.09274 7.94035L3.99274 7.94027ZM7.768 7.94364V10.1267H7.868V7.94364H7.768ZM7.76593 5.74564C7.7681 6.47848 7.76878 7.21113 7.768 7.94359L7.868 7.9437C7.86878 7.21111 7.8681 6.47832 7.86593 5.74535L7.76593 5.74564ZM7.4325 5.21543C7.54559 5.26809 7.62805 5.33943 7.68258 5.42667C7.73717 5.514 7.76565 5.62027 7.76593 5.7456L7.86593 5.74538C7.86561 5.60474 7.83351 5.47946 7.76738 5.37366C7.70119 5.26778 7.60278 5.18441 7.47472 5.12477L7.4325 5.21543ZM6.60373 5.76905C6.60566 5.31056 7.03525 5.03036 7.43249 5.21542L7.47472 5.12478C7.00668 4.90673 6.50594 5.24242 6.50373 5.76863L6.60373 5.76905ZM6.60314 7.54872C6.60255 6.95538 6.60196 6.36211 6.60373 5.76899L6.50373 5.76869C6.50196 6.36204 6.50255 6.95551 6.50314 7.54882L6.60314 7.54872ZM6.60373 8.43866C6.60373 8.14203 6.60344 7.84536 6.60314 7.54872L6.50314 7.54882C6.50344 7.84547 6.50373 8.14209 6.50373 8.43866H6.60373ZM6.60312 8.93525C6.60343 8.76974 6.60373 8.60419 6.60373 8.43866H6.50373C6.50373 8.60409 6.50343 8.76954 6.50312 8.93507L6.60312 8.93525ZM6.6052 10.1346C6.60166 9.73499 6.60239 9.33525 6.60312 8.93525L6.50312 8.93507C6.50239 9.33497 6.50166 9.73526 6.50521 10.1354L6.6052 10.1346ZM7.215 10.7269C6.86773 10.7318 6.60849 10.4848 6.6052 10.1345L6.50521 10.1355C6.50902 10.5423 6.81483 10.8326 7.21642 10.8268L7.215 10.7269ZM7.768 10.1267C7.768 10.4627 7.52374 10.7223 7.21498 10.7269L7.21644 10.8268C7.58561 10.8215 7.868 10.5114 7.868 10.1267H7.768Z" fill="#444444"/>
</svg>
