<svg width="12" height="12" viewBox="0 0 12 12" fill="none" xmlns="http://www.w3.org/2000/svg">
<path d="M7.32166 6.00039L11.8083 10.4872C11.9317 10.6107 11.9998 10.7755 12 10.9512C12 11.127 11.9319 11.292 11.8083 11.4153L11.4151 11.8084C11.2915 11.9322 11.1267 12 10.9508 12C10.7752 12 10.6104 11.9322 10.4868 11.8084L6.0002 7.32185L1.51337 11.8084C1.38995 11.9322 1.22507 12 1.04927 12C0.873659 12 0.70878 11.9322 0.585366 11.8084L0.192 11.4153C-0.064 11.1593 -0.064 10.7429 0.192 10.4872L4.67873 6.00039L0.192 1.51376C0.0684878 1.39005 0.000487805 1.22527 0.000487805 1.04956C0.000487805 0.873854 0.0684878 0.709073 0.192 0.585464L0.585268 0.19239C0.708683 0.0686836 0.873658 0.000780106 1.04917 0.000780106C1.22498 0.000780106 1.38985 0.0686836 1.51327 0.19239L6.0001 4.67902L10.4867 0.19239C10.6103 0.0686836 10.7751 0.000780106 10.9507 0.000780106H10.9509C11.1266 0.000780106 11.2914 0.0686836 11.415 0.19239L11.8082 0.585464C11.9316 0.708976 11.9997 0.873854 11.9997 1.04956C11.9997 1.22527 11.9316 1.39005 11.8082 1.51366L7.32166 6.00039Z" fill="#444444"/>
</svg>
