<svg width="22" height="22" viewBox="0 0 22 22" fill="none" xmlns="http://www.w3.org/2000/svg">
<path d="M12.6963 20.0992L20.3423 11.8988C21.2834 10.8885 21.2311 9.30579 20.2175 8.36462C19.2088 7.42353 17.626 7.47916 16.6849 8.48947L13.4828 11.9221L13.6294 3.54463C13.6536 2.16323 12.5551 1.02555 11.1737 1.00137C9.79229 0.977191 8.65461 2.07573 8.63043 3.45712L8.48373 11.838L5.40382 8.29034C4.49697 7.24769 2.91875 7.13672 1.87779 8.04193C1.3209 8.52724 1.02903 9.20387 1.01707 9.88706C1.00663 10.4836 1.20778 11.0855 1.62936 11.5696L8.98036 20.0325C9.44438 20.5674 10.1156 20.8808 10.8238 20.8932C11.532 20.9056 12.2138 20.6159 12.6963 20.0992Z" fill="#DA5656"/>
</svg>
