<svg width="16" height="18" viewBox="0 0 16 18" fill="none" xmlns="http://www.w3.org/2000/svg">
<path d="M8 17V1" stroke="#DC3545" stroke-width="2" stroke-linecap="round" stroke-linejoin="round"/>
<path d="M1 10L8 17L15 10" stroke="#DC3545" stroke-width="2" stroke-linecap="round" stroke-linejoin="round"/>
</svg>
