<svg width="20" height="20" viewBox="0 0 20 20" fill="none" xmlns="http://www.w3.org/2000/svg">
<path d="M8.14387 0.826599L0.642548 9.15955C-0.280743 10.1862 -0.200747 11.7678 0.829206 12.6911C1.85416 13.6143 3.43575 13.531 4.35905 12.5044L7.50057 9.01623L7.50057 17.395C7.50057 18.7766 8.61885 19.8949 10.0005 19.8949C11.3821 19.8949 12.5003 18.7766 12.5003 17.395V9.01289L15.6419 12.5061C16.5668 13.5327 18.1468 13.616 19.1717 12.6927C19.72 12.1977 20 11.5161 20 10.8328C20 10.2362 19.7883 9.63786 19.3584 9.16122L11.8604 0.828264C11.3871 0.301622 10.7104 -3.05176e-05 10.0021 -3.05176e-05C9.29382 -3.05176e-05 8.61718 0.301622 8.14387 0.826599Z" fill="#6DBA95"/>
</svg>
