<svg width="12" height="10" viewBox="0 0 12 10" fill="none" xmlns="http://www.w3.org/2000/svg">
<path fill-rule="evenodd" clip-rule="evenodd" d="M0.799818 1.53322C0.799818 1.05457 1.18784 0.66655 1.66649 0.66655H10.3332C10.8118 0.66655 11.1998 1.05457 11.1998 1.53322C11.1998 2.01186 10.8118 2.39988 10.3332 2.39988H1.66649C1.18784 2.39988 0.799818 2.01186 0.799818 1.53322ZM0.799805 5.00002C0.799805 4.52138 1.18782 4.13336 1.66647 4.13336H10.3331C10.8118 4.13336 11.1998 4.52138 11.1998 5.00002C11.1998 5.47867 10.8118 5.86669 10.3331 5.86669H1.66647C1.18783 5.86669 0.799805 5.47867 0.799805 5.00002ZM1.66647 7.60012C1.18782 7.60012 0.799805 7.98814 0.799805 8.46678C0.799805 8.94543 1.18783 9.33345 1.66647 9.33345H10.3331C10.8118 9.33345 11.1998 8.94543 11.1998 8.46678C11.1998 7.98814 10.8118 7.60012 10.3331 7.60012H1.66647Z" fill="#444444"/>
</svg>
