<svg width="16" height="16" viewBox="0 0 16 16" fill="none" xmlns="http://www.w3.org/2000/svg">
<path d="M12.9492 4.52734H12.5664V3.05078C12.5664 1.91998 11.6464 1 10.5156 1H5.48438C4.35357 1 3.43359 1.91998 3.43359 3.05078V4.52734H3.05078C1.91998 4.52734 1 5.44732 1 6.57812V9.85938C1 10.9902 1.91998 11.9102 3.05078 11.9102H3.43359V13.7695C3.43359 14.448 3.98558 15 4.66406 15H11.3359C12.0144 15 12.5664 14.448 12.5664 13.7695V11.9102H12.9492C14.08 11.9102 15 10.9902 15 9.85938V6.57812C15 5.44732 14.08 4.52734 12.9492 4.52734ZM4.25391 3.05078C4.25391 2.3723 4.80589 1.82031 5.48438 1.82031H10.5156C11.1941 1.82031 11.7461 2.3723 11.7461 3.05078V4.52734H4.25391V3.05078ZM11.7461 13.7695C11.7461 13.9957 11.5621 14.1797 11.3359 14.1797H4.66406C4.4379 14.1797 4.25391 13.9957 4.25391 13.7695V9.72266H11.7461V13.7695ZM14.1797 9.85938C14.1797 10.5379 13.6277 11.0898 12.9492 11.0898H12.5664V9.72266H12.8125C13.039 9.72266 13.2227 9.53902 13.2227 9.3125C13.2227 9.08598 13.039 8.90234 12.8125 8.90234H3.1875C2.96098 8.90234 2.77734 9.08598 2.77734 9.3125C2.77734 9.53902 2.96098 9.72266 3.1875 9.72266H3.43359V11.0898H3.05078C2.3723 11.0898 1.82031 10.5379 1.82031 9.85938V6.57812C1.82031 5.89964 2.3723 5.34766 3.05078 5.34766H12.9492C13.6277 5.34766 14.1797 5.89964 14.1797 6.57812V9.85938Z" fill="#444444" stroke="#444444" stroke-width="0.4"/>
<path d="M8.98242 11.7692H6.79492C6.56841 11.7692 6.38477 11.9529 6.38477 12.1794C6.38477 12.4059 6.56841 12.5895 6.79492 12.5895H8.98242C9.20894 12.5895 9.39258 12.4059 9.39258 12.1794C9.39258 11.9529 9.20894 11.7692 8.98242 11.7692Z" fill="#444444" stroke="#444444" stroke-width="0.4"/>
</svg>
