<svg width="16" height="14" viewBox="0 0 16 14" fill="none" xmlns="http://www.w3.org/2000/svg">
<path d="M11.1119 4.44328C11.1842 4.51617 11.2702 4.57402 11.365 4.61349C11.4597 4.65297 11.5614 4.6733 11.664 4.6733C11.7667 4.6733 11.8683 4.65297 11.9631 4.61349C12.0578 4.57402 12.1438 4.51617 12.2161 4.44328L15.3265 1.33288C15.4729 1.18645 15.5552 0.987859 15.5552 0.780783C15.5552 0.573706 15.4729 0.375111 15.3265 0.228686C15.1801 0.0822609 14.9815 0 14.7744 0C14.5673 0 14.3687 0.0822609 14.2223 0.228686L11.664 2.79477L10.6609 1.78389C10.5884 1.71139 10.5023 1.65387 10.4076 1.61464C10.3129 1.5754 10.2113 1.5552 10.1088 1.5552C9.90174 1.5552 9.70314 1.63746 9.55672 1.78389C9.48421 1.85639 9.4267 1.94246 9.38746 2.03719C9.34823 2.13192 9.32803 2.23345 9.32803 2.33598C9.32803 2.54306 9.41029 2.74166 9.55672 2.88808L11.1119 4.44328ZM14.7744 3.89119C14.5682 3.89119 14.3704 3.97311 14.2246 4.11894C14.0787 4.26477 13.9968 4.46256 13.9968 4.66879V11.6672C13.9968 11.8734 13.9149 12.0712 13.7691 12.217C13.6232 12.3629 13.4255 12.4448 13.2192 12.4448H2.3328C2.12657 12.4448 1.92878 12.3629 1.78296 12.217C1.63713 12.0712 1.5552 11.8734 1.5552 11.6672V4.21L6.1275 8.79007C6.56392 9.22293 7.15355 9.46605 7.76823 9.46659C8.39837 9.46335 9.00185 9.2119 9.44785 8.76675L10.7853 7.42927C10.9318 7.28285 11.014 7.08425 11.014 6.87717C11.014 6.6701 10.9318 6.4715 10.7853 6.32508C10.6389 6.17865 10.4403 6.09639 10.2332 6.09639C10.0262 6.09639 9.82756 6.17865 9.68113 6.32508L8.32033 7.68588C8.17498 7.82836 7.97955 7.90816 7.77601 7.90816C7.57247 7.90816 7.37705 7.82836 7.23169 7.68588L2.65162 3.11359H6.99841C7.20464 3.11359 7.40243 3.03166 7.54826 2.88583C7.69409 2.74 7.77601 2.54222 7.77601 2.33598C7.77601 2.12975 7.69409 1.93197 7.54826 1.78614C7.40243 1.64031 7.20464 1.55838 6.99841 1.55838H2.3328C1.71411 1.55838 1.12075 1.80416 0.683262 2.24165C0.245777 2.67913 0 3.27249 0 3.89119V11.6672C0 12.2859 0.245777 12.8793 0.683262 13.3167C1.12075 13.7542 1.71411 14 2.3328 14H13.2192C13.8379 14 14.4313 13.7542 14.8688 13.3167C15.3062 12.8793 15.552 12.2859 15.552 11.6672V4.66879C15.552 4.46256 15.4701 4.26477 15.3243 4.11894C15.1784 3.97311 14.9807 3.89119 14.7744 3.89119Z" fill="#444444"/>
</svg>
