<svg width="18" height="18" viewBox="0 0 18 18" fill="none" xmlns="http://www.w3.org/2000/svg">
<path d="M9 1C4.58873 1 1 4.58873 1 9C1 13.4113 4.58873 17 9 17C13.4113 17 17 13.4113 17 9C17 4.58873 13.4113 1 9 1ZM9 15.2514C5.55291 15.2514 2.74863 12.4471 2.74863 9C2.74863 5.55308 5.55291 2.74863 9 2.74863C12.4471 2.74863 15.2514 5.55308 15.2514 9C15.2514 12.4471 12.4471 15.2514 9 15.2514Z" fill="#E8AA4E" stroke="#E8AA4E" stroke-width="0.2"/>
<path d="M9.69231 9.00961V5.65663C9.69231 5.28225 9.38893 4.97887 9.01468 4.97887C8.64033 4.97887 8.33691 5.28225 8.33691 5.65663V9.22613C8.33691 9.23679 8.33954 9.24679 8.34006 9.25745C8.33114 9.44174 8.39463 9.62886 8.53538 9.76964L11.0596 12.2936C11.3243 12.5584 11.7534 12.5584 12.018 12.2936C12.2826 12.0289 12.2827 11.5998 12.018 11.3352L9.69231 9.00961Z" fill="#E8AA4E" stroke="#E8AA4E" stroke-width="0.2"/>
</svg>
